…
```
 3. For enhanced readability in the plot's tooltip, I created a `tooltip` column. Using the [`base::strwrap()`](https://www.rdocumentation.org/packages/base/versions/3.6.2/topics/strwrap) function, I formatted the event descriptions with line breaks at word boundaries (determined by the specified `width` parameter). The lines were then combined using the `paste()` function, incorporating `<br>` HTML tags for line breaks. For those using tidyverse, [`stringr::str_wrap()`](https://stringr.tidyverse.org/reference/str_wrap.html) can be a good alternative for `base::strwrap()`.<br>
```r
events_data <- events_data |> 
  rowwise() |> 
  mutate(tooltip = glue::glue("<b>In {year}:</b><br>{event}") |> 
           strwrap(width = 50) |> 
           paste(collapse = "<br>")) |> 
  mutate(year_ano = as.character(year))
```
4. I often assign a dataset to another object to be incorporated into a plot script. This makes it easier for me to make a test plot using test datasets.<br>
```r
main_data <- events_data
main_data
#> # A tibble: 28 × 6
#> # Rowwise: 
#>     year event                                     num year_int tooltip year_ano
#>    <dbl> <chr>                                   <int> <fct>    <chr>   <chr>   
#>  1  1908 James Madison University is founded at…     1 42       <b>In … 1908    
#>  2  1912 The Piedra Movediza (Moving Stone) of …     1 42       <b>In … 1912    
#>  3  1916 Tokelau is annexed by the United Kingd…     1 42       <b>In … 1916    
#>  4  1916 In South Carolina, the minimum working…     2 42       <b>In … 1916    
#>  5  1920 The Czechoslovak National Assembly ado…     1 42       <b>In … 1920    
#>  6  1936 The February 26 Incident in Tokyo ends.     1 43       <b>In … 1936    
#>  7  1940 For her performance as Mammy in Gone w…     1 43       <b>In … 1940    
#>  8  1940 Finland initiates Winter War peace neg…     2 43       <b>In … 1940    
#>  9  1940 In a ceremony held in Berkeley, Califo…     3 43       <b>In … 1940    
#> 10  1944 The Admiralty Islands are invaded in O…     1 43       <b>In … 1944    
#> # ℹ 18 more rows
```
…
